{
  "page": 1,
  "total": 5,
  "lastPage": 3,
  "result": [
    {
      "text": "data1"
    },
    {
      "text": "data12"
    }
  ]
}
